{
  "development": {
    "username": "postgres",
    "password": null,
    "database": "gabrielsaunders",
    "host": "127.0.0.1",
    "dialect": "postgres"
  },
  "test": {
    "username": "postgres",
    "password": null,
    "database": "fswd_seed_test",
    "host": "127.0.0.1",
    "dialect": "postgres",
    "logging": false
  },
  "production": {
    "use_env_variable": "DATABASE_URL"
  }
}
